On a un pcap, qui contient une séquence de ping identique, la seule variation est le temps. 

On commence par regarder les différence de date entre paquets consequtifs : 

0.703011 
0.762847
0.653169
0.712814
1.233287
etc.

Surprise : 
070 = F
076 = L 
065 = A 
071 = G

etc, jusqu'à avoir le flag : FLAG{t00sloWort00D3v1ou$}